{
    "openapi": "3.0.0",
    "info": {
        "title": "API сервиса курса валют",
        "version": "1.0.0"
    },
    "servers": [
        {
            "url": "http://localhost:28595/api",
            "description": "API Server"
        }
    ],
    "paths": {
        "/current": {
            "get": {
                "tags": [
                    "Rate"
                ],
                "summary": "Текущий курс валюты ru",
                "description": "Текущий курс валюты ru",
                "operationId": "0c222af6899b9e0d038938fae398c682",
                "responses": {
                    "200": {
                        "description": "successful operation",
                        "content": {
                            "application/json": {
                                "schema": {
                                    "allOf": [
                                        {
                                            "properties": {
                                                "data": {
                                                    "type": "array",
                                                    "items": {
                                                        "$ref": "#/components/schemas/RateResource"
                                                    }
                                                }
                                            },
                                            "type": "object"
                                        },
                                        {
                                            "$ref": "#/components/schemas/PaginatedResourceResponse"
                                        }
                                    ]
                                }
                            }
                        }
                    }
                }
            }
        },
        "/history": {
            "get": {
                "tags": [
                    "Rate"
                ],
                "summary": "История валюты ru",
                "description": "Текущий курс валюты ru",
                "operationId": "383e0f00191f89b1b9fe8c3427007f13",
                "responses": {
                    "200": {
                        "description": "successful operation",
                        "content": {
                            "application/json": {
                                "schema": {
                                    "allOf": [
                                        {
                                            "properties": {
                                                "data": {
                                                    "type": "array",
                                                    "items": {
                                                        "$ref": "#/components/schemas/RateResource"
                                                    }
                                                }
                                            },
                                            "type": "object"
                                        },
                                        {
                                            "$ref": "#/components/schemas/PaginatedResourceResponse"
                                        }
                                    ]
                                }
                            }
                        }
                    }
                }
            }
        }
    },
    "components": {
        "schemas": {
            "PaginatedResourceResponse": {
                "description": "Ресурс коллекции",
                "properties": {
                    "meta": {
                        "properties": {
                            "limit": {
                                "description": "Кол-во элементов на странице",
                                "type": "integer"
                            },
                            "offset": {
                                "description": "Какой сдвиг сделан",
                                "type": "integer"
                            },
                            "total": {
                                "description": "Всего элементов в списке",
                                "type": "integer"
                            }
                        },
                        "type": "object"
                    }
                },
                "type": "object"
            },
            "RateHistoryRequest": {
                "description": "История изменения курса валюты",
                "properties": {
                    "date": {
                        "description": "Дата",
                        "type": "string",
                        "pattern": "Y-m-d",
                        "example": "2020-04-20"
                    }
                },
                "type": "object"
            },
            "RateResource": {
                "description": "Ресурс курса валюты",
                "properties": {
                    "num_code": {
                        "description": "Код",
                        "type": "integer",
                        "example": "36"
                    },
                    "char_code": {
                        "description": "Символьный код",
                        "type": "string",
                        "example": "AUD"
                    },
                    "name": {
                        "description": "Название",
                        "type": "string",
                        "example": "Австралийский доллар"
                    },
                    "value": {
                        "description": "Значение",
                        "type": "float",
                        "example": "54.5022"
                    },
                    "previous": {
                        "description": "Предыдущее значение",
                        "type": "float",
                        "example": "54.5022"
                    },
                    "date": {
                        "description": "Дата",
                        "type": "string",
                        "example": "2022-01-14 08:30:00+00"
                    }
                },
                "type": "object"
            }
        }
    },
    "security": [
        []
    ]
}